20180419|1744|C:\Windows\explorer.exe|459384|masterchef|ResearchLogger|1920x1080|1662,362,529275937,left_down,20180419_174453_345000_%processname%_masterchef.png 1662,362,529276015,left_up,20180419_174453_939000_%processname%_masterchef.png 
20180419|1746|C:\Windows\explorer.exe|65808|masterchef|Aplicaciones en ejecución|1920x1080|257,1061,529362453,left_down,20180419_174619_807000_%processname%_masterchef.png 257,1061,529362578,left_up,20180419_174619_885000_%processname%_masterchef.png 
20180419|1746|C:\Windows\explorer.exe|65812|masterchef||1920x1080|307,982,529365843,left_down,20180419_174623_198000_%processname%_masterchef.png 307,982,529365937,left_up,20180419_174623_354000_%processname%_masterchef.png 236,979,529372687,left_down,20180419_174630_57000_%processname%_masterchef.png 236,979,529372781,left_up,20180419_174630_182000_%processname%_masterchef.png 
20180419|1746|C:\Python27\pythonw.exe|131808|masterchef||1920x1080|113,465,529373843,left_down,20180419_174631_214000_%processname%_masterchef.png 113,465,529373921,left_up,20180419_174631_292000_%processname%_masterchef.png 
20180419|1747|C:\Program Files\LibreOffice\program\soffice.bin|459632|masterchef|2858 - Parsing Binary Strings.docx - LibreOffice Writer|1920x1080|995,460,529449312,left_down,20180419_174746_668000_%processname%_masterchef.png 995,460,529449375,left_up,20180419_174746_746000_%processname%_masterchef.png 
20180419|1747|C:\Windows\explorer.exe|65808|masterchef|Aplicaciones en ejecución|1920x1080|281,1063,529453687,left_down,20180419_174751_74000_%processname%_masterchef.png 281,1063,529453781,left_up,20180419_174751_168000_%processname%_masterchef.png 
20180419|1747|C:\Windows\explorer.exe|65812|masterchef||1920x1080|306,959,529455859,left_down,20180419_174753_230000_%processname%_masterchef.png 306,959,529455921,left_up,20180419_174753_402000_%processname%_masterchef.png 
20180419|1755|C:\Python27\pythonw.exe|131808|masterchef||1920x1080|204,101,529915343,left_down,20180419_175532_700000_%processname%_masterchef.png 204,101,529915421,left_up,20180419_175532_793000_%processname%_masterchef.png 
20180419|1756|C:\Python27\pythonw.exe|131808|masterchef||1920x1080|213,170,529968343,left_down,20180419_175625_721000_%processname%_masterchef.png 213,170,529968468,left_up,20180419_175625_799000_%processname%_masterchef.png 254,173,529975203,left_down,20180419_175632_596000_%processname%_masterchef.png 254,173,529975296,left_up,20180419_175632_674000_%processname%_masterchef.png 324,163,529997984,left_down,20180419_175655_386000_%processname%_masterchef.png 324,163,529998078,left_up,20180419_175655_479000_%processname%_masterchef.png 
20180419|1757|C:\Python27\pythonw.exe|131808|masterchef||1920x1080|160,144,530036687,left_down,20180419_175734_49000_%processname%_masterchef.png 160,144,530036796,left_up,20180419_175734_127000_%processname%_masterchef.png 269,339,530040796,left_down,20180419_175738_158000_%processname%_masterchef.png 269,339,530040906,left_up,20180419_175738_237000_%processname%_masterchef.png 162,202,530062000,left_down,20180419_175759_375000_%processname%_masterchef.png 162,202,530062093,left_up,20180419_175759_468000_%processname%_masterchef.png 
20180419|1758|C:\Python27\pythonw.exe|131808|masterchef||1920x1080|227,343,530107750,left_down,20180419_175845_123000_%processname%_masterchef.png 227,343,530107843,left_up,20180419_175845_217000_%processname%_masterchef.png 
20180419|1800|C:\Python27\pythonw.exe|131808|masterchef||1920x1080|63,265,530237406,left_down,20180419_180054_771000_%processname%_masterchef.png 62,265,530237500,left_up,20180419_180054_880000_%processname%_masterchef.png 
20180419|1801|C:\Python27\pythonw.exe|131808|masterchef||1920x1080|230,350,530254937,left_down,20180419_180112_287000_%processname%_masterchef.png 230,350,530255031,left_up,20180419_180112_365000_%processname%_masterchef.png 
20180419|1802|C:\Python27\pythonw.exe|131808|masterchef||1920x1080|38,308,530319500,left_down,20180419_180216_859000_%processname%_masterchef.png 266,421,530320781,left_up,20180419_180218_94000_%processname%_masterchef.png 185,289,530326109,left_down,20180419_180223_500000_%processname%_masterchef.png 185,289,530326171,left_up,20180419_180223_594000_%processname%_masterchef.png 
20180419|1804|C:\Python27\pythonw.exe|131808|masterchef||1920x1080|139,389,530450531,left_down,20180419_180427_895000_%processname%_masterchef.png 388,391,530451953,left_up,20180419_180429_276000_%processname%_masterchef.png 332,390,530452453,left_down,20180419_180429_823000_%processname%_masterchef.png 
20180419|1804|C:\Python27\pythonw.exe|1442938|masterchef||1920x1080|332,390,530452546,left_up,20180419_180429_932000_%processname%_masterchef.png 382,413,530453390,left_down,20180419_180430_729000_%processname%_masterchef.png 
20180419|1804|noprocname|1442938|masterchef||1920x1080|382,414,530453468,left_up,20180419_180430_838000_%processname%_masterchef.png 
20180419|1804|C:\Python27\pythonw.exe|131808|masterchef||1920x1080|231,423,530454000,left_down,20180419_180431_354000_%processname%_masterchef.png 231,423,530454062,left_up,20180419_180431_463000_%processname%_masterchef.png 303,429,530465156,left_down,20180419_180442_526000_%processname%_masterchef.png 303,429,530465234,left_up,20180419_180442_667000_%processname%_masterchef.png 272,440,530466421,left_down,20180419_180443_823000_%processname%_masterchef.png 271,440,530466531,left_up,20180419_180443_963000_%processname%_masterchef.png 257,409,530474671,left_down,20180419_180452_42000_%processname%_masterchef.png 257,409,530474750,left_up,20180419_180452_135000_%processname%_masterchef.png 412,456,530479875,left_down,20180419_180457_245000_%processname%_masterchef.png 412,456,530479953,left_up,20180419_180457_339000_%processname%_masterchef.png 
20180419|1805|C:\Python27\pythonw.exe|131808|masterchef||1920x1080|261,477,530492437,left_down,20180419_180509_811000_%processname%_masterchef.png 261,477,530492546,left_up,20180419_180509_983000_%processname%_masterchef.png 373,482,530494765,left_down,20180419_180512_124000_%processname%_masterchef.png 373,482,530494875,left_up,20180419_180512_217000_%processname%_masterchef.png 363,476,530495640,left_down,20180419_180512_983000_%processname%_masterchef.png 363,476,530495750,left_up,20180419_180513_77000_%processname%_masterchef.png 220,104,530511687,left_down,20180419_180529_46000_%processname%_masterchef.png 220,104,530511796,left_up,20180419_180529_139000_%processname%_masterchef.png 225,169,530518250,left_down,20180419_180535_611000_%processname%_masterchef.png 225,169,530518359,left_up,20180419_180535_705000_%processname%_masterchef.png 237,224,530525718,left_down,20180419_180543_64000_%processname%_masterchef.png 237,224,530525781,left_up,20180419_180543_158000_%processname%_masterchef.png 250,164,530530546,left_down,20180419_180547_908000_%processname%_masterchef.png 250,164,530530609,left_up,20180419_180548_2000_%processname%_masterchef.png 
20180419|1806|C:\Python27\pythonw.exe|263004|masterchef|*Python 2.7.14 Shell*|1920x1080|859,227,530561281,left_down,20180419_180618_660000_%processname%_masterchef.png 859,227,530561343,left_up,20180419_180618_754000_%processname%_masterchef.png 
20180419|1806|C:\Python27\pythonw.exe|1115054|masterchef|Aceptar|1920x1080|938,598,530562546,left_down,20180419_180619_910000_%processname%_masterchef.png 938,598,530562640,left_up,20180419_180620_35000_%processname%_masterchef.png 
20180419|1806|C:\Python27\pythonw.exe|131808|masterchef||1920x1080|229,317,530563937,left_down,20180419_180621_300000_%processname%_masterchef.png 
20180419|1806|C:\Program Files\LibreOffice\program\soffice.bin|459632|masterchef|2858 - Parsing Binary Strings.docx - LibreOffice Writer|1920x1080|10,289,530565718,left_up,20180419_180623_35000_%processname%_masterchef.png 
20180419|1806|C:\Python27\pythonw.exe|131808|masterchef||1920x1080|385,426,530569500,left_down,20180419_180626_879000_%processname%_masterchef.png 385,426,530569593,left_up,20180419_180626_957000_%processname%_masterchef.png 307,86,530577468,left_down,20180419_180634_847000_%processname%_masterchef.png 307,86,530577546,left_up,20180419_180634_956000_%processname%_masterchef.png 
20180419|1807|C:\Python27\pythonw.exe|131808|masterchef||1920x1080|259,516,530618843,left_down,20180419_180716_222000_%processname%_masterchef.png 258,516,530618937,left_up,20180419_180716_315000_%processname%_masterchef.png 220,550,530637687,left_down,20180419_180735_66000_%processname%_masterchef.png 220,550,530637781,left_up,20180419_180735_159000_%processname%_masterchef.png 223,542,530638812,left_down,20180419_180736_191000_%processname%_masterchef.png 223,542,530638890,left_up,20180419_180736_269000_%processname%_masterchef.png 
20180419|1807|C:\Program Files\LibreOffice\program\soffice.bin|459632|masterchef|2858 - Parsing Binary Strings.docx - LibreOffice Writer|1920x1080|850,773,530646437,left_down,20180419_180743_795000_%processname%_masterchef.png 850,773,530646500,left_up,20180419_180743_889000_%processname%_masterchef.png 618,695,530648031,left_down,20180419_180745_389000_%processname%_masterchef.png 1176,698,530650234,left_up,20180419_180747_561000_%processname%_masterchef.png 1148,698,530650578,left_down,20180419_180747_936000_%processname%_masterchef.png 1148,698,530650671,left_up,20180419_180748_61000_%processname%_masterchef.png 
20180419|1807|C:\Program Files\LibreOffice\program\soffice.bin|1114504|masterchef||1920x1080|1206,741,530651828,left_down,20180419_180749_186000_%processname%_masterchef.png 
20180419|1807|noprocname|1114504|masterchef||1920x1080|1206,741,530651921,left_up,20180419_180749_295000_%processname%_masterchef.png 
20180419|1807|C:\Windows\explorer.exe|65808|masterchef|Aplicaciones en ejecución|1920x1080|277,1066,530653500,left_down,20180419_180750_858000_%processname%_masterchef.png 277,1066,530653562,left_up,20180419_180750_936000_%processname%_masterchef.png 
20180419|1807|C:\Windows\explorer.exe|65812|masterchef||1920x1080|320,973,530655171,left_down,20180419_180752_545000_%processname%_masterchef.png 320,973,530655234,left_up,20180419_180752_624000_%processname%_masterchef.png 
20180419|1808|C:\Windows\explorer.exe|65808|masterchef|Aplicaciones en ejecución|1920x1080|262,1053,530678281,left_down,20180419_180815_633000_%processname%_masterchef.png 262,1053,530678390,left_up,20180419_180815_727000_%processname%_masterchef.png 
20180419|1808|C:\Windows\explorer.exe|65812|masterchef||1920x1080|185,966,530679828,left_down,20180419_180817_195000_%processname%_masterchef.png 185,966,530679906,left_up,20180419_180817_398000_%processname%_masterchef.png 
20180419|1808|C:\Python27\pythonw.exe|131808|masterchef||1920x1080|148,520,530685250,left_down,20180419_180822_586000_%processname%_masterchef.png 148,520,530685328,left_up,20180419_180822_727000_%processname%_masterchef.png 
20180419|1808|C:\Program Files\LibreOffice\program\soffice.bin|459632|masterchef|2858 - Parsing Binary Strings.docx - LibreOffice Writer|1920x1080|939,648,530698187,left_down,20180419_180835_558000_%processname%_masterchef.png 939,648,530698281,left_up,20180419_180835_636000_%processname%_masterchef.png 612,699,530699468,left_down,20180419_180836_824000_%processname%_masterchef.png 886,695,530704265,left_up,20180419_180841_577000_%processname%_masterchef.png 866,693,530704812,left_down,20180419_180842_156000_%processname%_masterchef.png 
20180419|1808|C:\Program Files\LibreOffice\program\soffice.bin|721570|masterchef||1920x1080|866,693,530704890,left_up,20180419_180842_296000_%processname%_masterchef.png 919,734,530705828,left_down,20180419_180843_218000_%processname%_masterchef.png 
20180419|1808|noprocname|721570|masterchef||1920x1080|919,734,530705875,left_up,20180419_180843_296000_%processname%_masterchef.png 
20180419|1808|C:\Windows\explorer.exe|65808|masterchef|Aplicaciones en ejecución|1920x1080|271,1049,530706921,left_down,20180419_180844_296000_%processname%_masterchef.png 271,1049,530707000,left_up,20180419_180844_374000_%processname%_masterchef.png 
20180419|1808|C:\Windows\explorer.exe|65812|masterchef||1920x1080|251,968,530709484,left_down,20180419_180846_874000_%processname%_masterchef.png 251,968,530709578,left_up,20180419_180847_15000_%processname%_masterchef.png 
20180419|1809|C:\Python27\pythonw.exe|131808|masterchef||1920x1080|82,423,530743781,left_down,20180419_180921_145000_%processname%_masterchef.png 82,423,530743890,left_up,20180419_180921_238000_%processname%_masterchef.png 243,326,530745328,left_down,20180419_180922_707000_%processname%_masterchef.png 243,326,530745406,left_up,20180419_180922_863000_%processname%_masterchef.png 
20180419|1809|C:\Python27\pythonw.exe|1639744|masterchef|Python 2.7.14 Shell|1920x1080|766,143,530774031,left_down,20180419_180951_397000_%processname%_masterchef.png 766,143,530774093,left_up,20180419_180951_490000_%processname%_masterchef.png 
20180419|1809|C:\Python27\pythonw.exe|131808|masterchef||1920x1080|148,522,530776046,left_down,20180419_180953_443000_%processname%_masterchef.png 148,522,530776140,left_up,20180419_180953_522000_%processname%_masterchef.png 40,94,530781375,left_down,20180419_180958_694000_%processname%_masterchef.png 40,94,530781453,left_up,20180419_180958_787000_%processname%_masterchef.png 
20180419|1810|C:\Python27\pythonw.exe|131808|masterchef||1920x1080|138,536,530789578,left_down,20180419_181006_959000_%processname%_masterchef.png 138,536,530789671,left_up,20180419_181007_53000_%processname%_masterchef.png 
20180419|1811|C:\Python27\pythonw.exe|787360|masterchef|Python 2.7.14 Shell|1920x1080|349,170,530858015,left_down,20180419_181115_395000_%processname%_masterchef.png 584,168,530860078,left_up,20180419_181117_437000_%processname%_masterchef.png 
20180419|1811|C:\Python27\pythonw.exe|131808|masterchef||1920x1080|210,567,530860671,left_down,20180419_181118_15000_%processname%_masterchef.png 210,567,530860765,left_up,20180419_181118_93000_%processname%_masterchef.png 
20180419|1811|C:\Windows\explorer.exe|65808|masterchef|Aplicaciones en ejecución|1920x1080|233,1054,530880375,left_down,20180419_181137_759000_%processname%_masterchef.png 233,1054,530880453,left_up,20180419_181137_855000_%processname%_masterchef.png 
20180419|1811|C:\Program Files (x86)\Google\Chrome\Application\chrome.exe|459738|masterchef|Chrome Legacy Window|1920x1080|704,390,530881812,left_down,20180419_181139_164000_%processname%_masterchef.png 704,390,530881875,left_up,20180419_181139_235000_%processname%_masterchef.png 
20180419|1811|C:\Windows\explorer.exe|65808|masterchef|Aplicaciones en ejecución|1920x1080|284,1059,530891750,left_down,20180419_181149_97000_%processname%_masterchef.png 284,1059,530891859,left_up,20180419_181149_156000_%processname%_masterchef.png 
20180419|1812|C:\Program Files (x86)\Google\Chrome\Application\chrome.exe|459738|masterchef|Chrome Legacy Window|1920x1080|711,399,530927343,left_down,20180419_181224_687000_%processname%_masterchef.png 711,399,530927437,left_up,20180419_181224_761000_%processname%_masterchef.png 
20180419|1812|C:\Program Files (x86)\Google\Chrome\Application\chrome.exe|1639786|masterchef|Chrome Legacy Window|1920x1080|421,247,530941390,left_down,20180419_181238_738000_%processname%_masterchef.png 421,247,530941484,left_up,20180419_181238_837000_%processname%_masterchef.png 
20180419|1813|C:\Windows\explorer.exe|65808|masterchef|Aplicaciones en ejecución|1920x1080|376,1071,530995953,left_down,20180419_181333_350000_%processname%_masterchef.png 376,1071,530996046,left_up,20180419_181333_472000_%processname%_masterchef.png 377,1071,530996687,left_down,20180419_181334_78000_%processname%_masterchef.png 377,1071,530996781,left_up,20180419_181334_204000_%processname%_masterchef.png 282,1063,530997828,left_down,20180419_181335_189000_%processname%_masterchef.png 282,1063,530997921,left_up,20180419_181335_357000_%processname%_masterchef.png 
20180419|1813|C:\Windows\explorer.exe|65812|masterchef||1920x1080|303,967,531000062,left_down,20180419_181337_406000_%processname%_masterchef.png 303,967,531000171,left_up,20180419_181337_554000_%processname%_masterchef.png 
20180419|1813|C:\Windows\explorer.exe|65808|masterchef|Aplicaciones en ejecución|1920x1080|281,1071,531022078,left_down,20180419_181359_417000_%processname%_masterchef.png 281,1071,531022171,left_up,20180419_181359_548000_%processname%_masterchef.png 
20180419|1814|C:\Windows\explorer.exe|65812|masterchef||1920x1080|245,969,531022718,left_down,20180419_181400_101000_%processname%_masterchef.png 245,969,531022812,left_up,20180419_181400_227000_%processname%_masterchef.png 
20180419|1814|C:\Python27\pythonw.exe|394010|masterchef|prueba.py - C:/Python27/prueba.py (2.7.14)|1920x1080|381,44,531048781,left_down,20180419_181426_125000_%processname%_masterchef.png 1013,250,531049796,left_up,20180419_181427_183000_%processname%_masterchef.png 993,262,531052171,left_down,20180419_181429_525000_%processname%_masterchef.png 864,228,531053312,left_up,20180419_181430_620000_%processname%_masterchef.png 
20180419|1814|C:\Program Files (x86)\Google\Chrome\Application\chrome.exe|394346|masterchef|python - input() error - NameError: name '...' is not defined - Stack Overflow - Google Chrome|1920x1080|218,13,531055281,left_down,20180419_181432_653000_%processname%_masterchef.png 218,13,531055343,left_up,20180419_181432_804000_%processname%_masterchef.png 
20180419|1814|C:\Program Files (x86)\Google\Chrome\Application\chrome.exe|589878|masterchef|Chrome Legacy Window|1920x1080|678,402,531056484,left_down,20180419_181433_848000_%processname%_masterchef.png 678,402,531056562,left_up,20180419_181433_920000_%processname%_masterchef.png 
20180419|1814|C:\Program Files (x86)\Google\Chrome\Application\chrome.exe|1442684|masterchef|Chrome Legacy Window|1920x1080|458,259,531071968,left_down,20180419_181449_322000_%processname%_masterchef.png 458,259,531072093,left_up,20180419_181449_451000_%processname%_masterchef.png 
20180419|1815|C:\Windows\explorer.exe|65808|masterchef|Aplicaciones en ejecución|1920x1080|281,1057,531094625,left_down,20180419_181511_999000_%processname%_masterchef.png 281,1057,531094703,left_up,20180419_181512_117000_%processname%_masterchef.png 
20180419|1815|C:\Windows\explorer.exe|65812|masterchef||1920x1080|244,970,531095843,left_down,20180419_181513_216000_%processname%_masterchef.png 244,970,531095921,left_up,20180419_181513_338000_%processname%_masterchef.png 
20180419|1815|C:\Python27\pythonw.exe|131808|masterchef||1920x1080|731,757,531097578,left_down,20180419_181514_906000_%processname%_masterchef.png 609,767,531098062,left_up,20180419_181515_409000_%processname%_masterchef.png 624,742,531099015,left_down,20180419_181516_388000_%processname%_masterchef.png 624,742,531099125,left_up,20180419_181516_539000_%processname%_masterchef.png 
20180419|1815|C:\Python27\pythonw.exe|787360|masterchef|Python 2.7.14 Shell|1920x1080|1036,174,531116500,left_down,20180419_181533_833000_%processname%_masterchef.png 1036,174,531116593,left_up,20180419_181533_995000_%processname%_masterchef.png 
20180419|1815|C:\Python27\pythonw.exe|131808|masterchef||1920x1080|734,531,531123093,left_down,20180419_181540_424000_%processname%_masterchef.png 734,531,531123156,left_up,20180419_181540_609000_%processname%_masterchef.png 
20180419|1816|C:\Python27\pythonw.exe|1049250|masterchef|Python 2.7.14 Shell|1920x1080|838,206,531194625,left_down,20180419_181651_993000_%processname%_masterchef.png 838,206,531194765,left_up,20180419_181652_125000_%processname%_masterchef.png 
20180419|1816|C:\Python27\pythonw.exe|131808|masterchef||1920x1080|690,548,531196218,left_down,20180419_181653_615000_%processname%_masterchef.png 690,548,531196312,left_up,20180419_181653_737000_%processname%_masterchef.png 
20180419|1817|C:\Program Files (x86)\Google\Chrome\Application\chrome.exe|394346|masterchef|Python 2.7 getting user input and manipulating as string without quotations - Stack Overflow - Google Chrome|1920x1080|22,38,531243343,left_down,20180419_181740_692000_%processname%_masterchef.png 22,38,531243453,left_up,20180419_181740_825000_%processname%_masterchef.png 
20180419|1817|C:\Program Files (x86)\Google\Chrome\Application\chrome.exe|1442684|masterchef|Chrome Legacy Window|1920x1080|348,105,531244437,left_down,20180419_181741_771000_%processname%_masterchef.png 348,105,531244531,left_up,20180419_181741_860000_%processname%_masterchef.png 185,112,531245609,left_down,20180419_181742_954000_%processname%_masterchef.png 185,112,531245687,left_up,20180419_181743_168000_%processname%_masterchef.png 185,112,531245796,left_down,20180419_181743_262000_%processname%_masterchef.png 185,112,531245859,left_up,20180419_181743_394000_%processname%_masterchef.png 404,256,531250250,left_down,20180419_181747_573000_%processname%_masterchef.png 404,256,531250343,left_up,20180419_181747_693000_%processname%_masterchef.png 379,302,531253343,left_down,20180419_181750_716000_%processname%_masterchef.png 379,302,531253421,left_up,20180419_181750_810000_%processname%_masterchef.png 
20180419|1819|C:\Windows\explorer.exe|65808|masterchef|Aplicaciones en ejecución|1920x1080|270,1052,531349437,left_down,20180419_181926_861000_%processname%_masterchef.png 270,1052,531349578,left_up,20180419_181926_957000_%processname%_masterchef.png 
20180419|1819|C:\Python27\pythonw.exe|131808|masterchef||1920x1080|731,546,531351953,left_down,20180419_181929_301000_%processname%_masterchef.png 731,546,531352046,left_up,20180419_181929_409000_%processname%_masterchef.png 726,546,531352500,left_down,20180419_181929_850000_%processname%_masterchef.png 575,547,531353859,left_up,20180419_181931_176000_%processname%_masterchef.png 706,551,531378046,left_down,20180419_181955_431000_%processname%_masterchef.png 706,551,531378125,left_up,20180419_181955_529000_%processname%_masterchef.png 
20180419|1820|C:\Python27\pythonw.exe|852834|masterchef|Python 2.7.14 Shell|1920x1080|779,231,531404156,left_down,20180419_182021_545000_%processname%_masterchef.png 779,231,531404250,left_up,20180419_182021_639000_%processname%_masterchef.png 
20180419|1820|C:\Python27\pythonw.exe|131808|masterchef||1920x1080|695,551,531405843,left_down,20180419_182023_207000_%processname%_masterchef.png 695,551,531405953,left_up,20180419_182023_317000_%processname%_masterchef.png 
20180419|1820|C:\Python27\pythonw.exe|852834|masterchef|Python 2.7.14 Shell|1920x1080|853,220,531419359,left_down,20180419_182036_732000_%processname%_masterchef.png 853,220,531419437,left_up,20180419_182036_826000_%processname%_masterchef.png 
20180419|1820|C:\Python27\pythonw.exe|394010|masterchef|prueba.py - C:/Python27/prueba.py (2.7.14)|1920x1080|999,219,531422046,left_down,20180419_182039_409000_%processname%_masterchef.png 1405,87,531422953,left_up,20180419_182040_316000_%processname%_masterchef.png 
20180419|1820|C:\Program Files (x86)\Google\Chrome\Application\chrome.exe|394346|masterchef|7.1. string — Common string operations — Python 2.7.15rc1 documentation - Google Chrome|1920x1080|6,37,531430562,left_down,20180419_182047_975000_%processname%_masterchef.png 6,37,531430671,left_up,20180419_182048_93000_%processname%_masterchef.png 
20180419|1820|C:\Program Files (x86)\Google\Chrome\Application\chrome.exe|1442684|masterchef|Chrome Legacy Window|1920x1080|373,435,531433640,left_down,20180419_182051_6000_%processname%_masterchef.png 373,435,531433750,left_up,20180419_182051_110000_%processname%_masterchef.png 
20180419|1821|C:\Program Files (x86)\Google\Chrome\Application\chrome.exe|394346|masterchef|Split line in Python 2.7 - Stack Overflow - Google Chrome|1920x1080|21,46,531454718,left_down,20180419_182112_48000_%processname%_masterchef.png 21,46,531454796,left_up,20180419_182112_218000_%processname%_masterchef.png 
20180419|1821|C:\Program Files (x86)\Google\Chrome\Application\chrome.exe|1442684|masterchef|Chrome Legacy Window|1920x1080|432,448,531458531,left_down,20180419_182115_915000_%processname%_masterchef.png 432,448,531458609,left_up,20180419_182116_14000_%processname%_masterchef.png 
20180419|1822|C:\Windows\explorer.exe|65808|masterchef|Aplicaciones en ejecución|1920x1080|252,1067,531551296,left_down,20180419_182248_633000_%processname%_masterchef.png 252,1067,531551375,left_up,20180419_182248_804000_%processname%_masterchef.png 
20180419|1822|C:\Python27\pythonw.exe|131808|masterchef||1920x1080|1094,434,531553281,left_down,20180419_182250_648000_%processname%_masterchef.png 
20180419|1822|C:\Program Files (x86)\Google\Chrome\Application\chrome.exe|1442684|masterchef|Chrome Legacy Window|1920x1080|924,420,531554281,left_up,20180419_182251_591000_%processname%_masterchef.png 
20180419|1822|C:\Python27\pythonw.exe|131808|masterchef||1920x1080|1021,419,531557515,left_down,20180419_182254_868000_%processname%_masterchef.png 1021,419,531557640,left_up,20180419_182255_15000_%processname%_masterchef.png 
20180419|1823|C:\Python27\pythonw.exe|131808|masterchef||1920x1080|1105,433,531569093,left_down,20180419_182306_429000_%processname%_masterchef.png 1105,433,531569218,left_up,20180419_182306_574000_%processname%_masterchef.png 1045,459,531591515,left_down,20180419_182328_849000_%processname%_masterchef.png 1305,462,531592750,left_up,20180419_182330_52000_%processname%_masterchef.png 1149,413,531601250,left_down,20180419_182338_630000_%processname%_masterchef.png 1149,413,531601328,left_up,20180419_182338_746000_%processname%_masterchef.png 1074,467,531615109,left_down,20180419_182352_480000_%processname%_masterchef.png 1074,467,531615187,left_up,20180419_182352_593000_%processname%_masterchef.png 
20180419|1824|C:\Python27\pythonw.exe|131808|masterchef||1920x1080|1201,467,531645796,left_down,20180419_182423_206000_%processname%_masterchef.png 1201,467,531645906,left_up,20180419_182423_366000_%processname%_masterchef.png 1044,491,531667015,left_down,20180419_182444_380000_%processname%_masterchef.png 1044,491,531667078,left_up,20180419_182444_502000_%processname%_masterchef.png 1283,510,531673437,left_down,20180419_182450_792000_%processname%_masterchef.png 
20180419|1824|C:\Python27\pythonw.exe|394010|masterchef|*prueba.py - C:/Python27/prueba.py (2.7.14)*|1920x1080|937,515,531675796,left_up,20180419_182453_129000_%processname%_masterchef.png 
20180419|1824|C:\Python27\pythonw.exe|131808|masterchef||1920x1080|1007,513,531680046,left_down,20180419_182457_413000_%processname%_masterchef.png 1007,513,531680125,left_up,20180419_182457_543000_%processname%_masterchef.png 
20180419|1825|C:\Python27\pythonw.exe|131808|masterchef||1920x1080|1046,529,531683250,left_down,20180419_182500_620000_%processname%_masterchef.png 1046,529,531683359,left_up,20180419_182500_831000_%processname%_masterchef.png 1078,514,531685546,left_down,20180419_182502_924000_%processname%_masterchef.png 1078,514,531685671,left_up,20180419_182503_50000_%processname%_masterchef.png 1045,543,531690156,left_down,20180419_182507_514000_%processname%_masterchef.png 1338,563,531691109,left_up,20180419_182508_428000_%processname%_masterchef.png 
20180419|1826|C:\Python27\pythonw.exe|394226|masterchef|Aceptar|1920x1080|1049,598,531766234,left_down,20180419_182623_600000_%processname%_masterchef.png 
20180419|1826|noprocname|394226|masterchef|Aceptar|1920x1080|1049,598,531766312,left_up,20180419_182623_706000_%processname%_masterchef.png 
20180419|1826|C:\Python27\pythonw.exe|131808|masterchef||1920x1080|1179,478,531767171,left_down,20180419_182624_536000_%processname%_masterchef.png 1179,478,531767250,left_up,20180419_182624_662000_%processname%_masterchef.png 
20180419|1826|C:\Python27\pythonw.exe|1048630|masterchef|Python 2.7.14 Shell|1920x1080|885,250,531791703,left_down,20180419_182649_35000_%processname%_masterchef.png 885,250,531791750,left_up,20180419_182649_189000_%processname%_masterchef.png 
20180419|1826|C:\Python27\pythonw.exe|131808|masterchef||1920x1080|1133,335,531792484,left_down,20180419_182649_841000_%processname%_masterchef.png 
20180419|1826|C:\Python27\pythonw.exe|394010|masterchef|prueba.py - C:/Python27/prueba.py (2.7.14)|1920x1080|937,337,531793437,left_up,20180419_182650_764000_%processname%_masterchef.png 
20180419|1826|C:\Python27\pythonw.exe|1835642|masterchef|Aceptar|1920x1080|1109,589,531799203,left_down,20180419_182656_584000_%processname%_masterchef.png 1109,589,531799281,left_up,20180419_182656_707000_%processname%_masterchef.png 
20180419|1826|C:\Python27\pythonw.exe|131808|masterchef||1920x1080|1155,469,531799750,left_down,20180419_182657_153000_%processname%_masterchef.png 1155,469,531799843,left_up,20180419_182657_269000_%processname%_masterchef.png 
20180419|1827|C:\Python27\pythonw.exe|131808|masterchef||1920x1080|1061,334,531812531,left_down,20180419_182709_914000_%processname%_masterchef.png 1061,334,531812609,left_up,20180419_182710_30000_%processname%_masterchef.png 1174,332,531817906,left_down,20180419_182715_253000_%processname%_masterchef.png 1174,332,531818000,left_up,20180419_182715_397000_%processname%_masterchef.png 
20180419|1828|C:\Windows\explorer.exe|65808|masterchef|Aplicaciones en ejecución|1920x1080|327,1072,531870062,left_down,20180419_182807_415000_%processname%_masterchef.png 327,1072,531870187,left_up,20180419_182807_563000_%processname%_masterchef.png 327,1072,531874281,left_down,20180419_182811_633000_%processname%_masterchef.png 327,1072,531874406,left_up,20180419_182811_732000_%processname%_masterchef.png 
20180419|1829|C:\Python27\pythonw.exe|131808|masterchef||1920x1080|1012,451,531944031,left_down,20180419_182921_401000_%processname%_masterchef.png 1012,451,531944125,left_up,20180419_182921_533000_%processname%_masterchef.png 
20180419|1830|C:\Python27\pythonw.exe|131808|masterchef||1920x1080|1293,450,531984843,left_down,20180419_183002_184000_%processname%_masterchef.png 1293,450,531984937,left_up,20180419_183002_329000_%processname%_masterchef.png 
20180419|1831|C:\Python27\pythonw.exe|2884570|masterchef|Python 2.7.14 Shell|1920x1080|688,39,532094531,left_down,20180419_183151_875000_%processname%_masterchef.png 
20180419|1831|noprocname|2884570|masterchef|Python 2.7.14 Shell|1920x1080|688,39,532094609,left_up,20180419_183152_42000_%processname%_masterchef.png 
20180419|1832|C:\Python27\pythonw.exe|131808|masterchef||1920x1080|1269,251,532109390,left_down,20180419_183206_738000_%processname%_masterchef.png 1269,251,532109468,left_up,20180419_183206_926000_%processname%_masterchef.png 1347,410,532116875,left_down,20180419_183214_265000_%processname%_masterchef.png 1347,410,532116968,left_up,20180419_183214_383000_%processname%_masterchef.png 1494,288,532139468,left_down,20180419_183236_864000_%processname%_masterchef.png 1477,312,532139562,left_up,20180419_183236_987000_%processname%_masterchef.png 1477,312,532141140,left_down,20180419_183238_506000_%processname%_masterchef.png 1477,312,532141234,left_up,20180419_183238_675000_%processname%_masterchef.png 1291,548,532149218,left_down,20180419_183246_560000_%processname%_masterchef.png 1291,548,532149312,left_up,20180419_183246_715000_%processname%_masterchef.png 
20180419|1834|C:\Python27\pythonw.exe|131808|masterchef||1920x1080|1206,193,532257140,left_down,20180419_183434_535000_%processname%_masterchef.png 1206,193,532257218,left_up,20180419_183434_668000_%processname%_masterchef.png 
20180419|1834|C:\Python27\pythonw.exe|1508194|masterchef|Python 2.7.14 Shell|1920x1080|688,42,532265625,left_down,20180419_183443_1000_%processname%_masterchef.png 688,42,532265703,left_up,20180419_183443_120000_%processname%_masterchef.png 
20180419|1834|C:\Python27\pythonw.exe|1770400|masterchef|Aceptar|1920x1080|932,601,532268093,left_down,20180419_183445_466000_%processname%_masterchef.png 
20180419|1834|noprocname|1770400|masterchef|Aceptar|1920x1080|932,601,532268156,left_up,20180419_183445_594000_%processname%_masterchef.png 
20180419|1835|C:\Python27\pythonw.exe|131808|masterchef||1920x1080|1258,589,532292640,left_down,20180419_183509_982000_%processname%_masterchef.png 1042,586,532294046,left_up,20180419_183511_408000_%processname%_masterchef.png 
20180419|1835|C:\Program Files (x86)\Google\Chrome\Application\chrome.exe|1442684|masterchef|Chrome Legacy Window|1920x1080|873,640,532298093,left_down,20180419_183515_431000_%processname%_masterchef.png 873,640,532298171,left_up,20180419_183515_590000_%processname%_masterchef.png 
20180419|1835|C:\Windows\explorer.exe|65808|masterchef|Aplicaciones en ejecución|1920x1080|265,1061,532301484,left_down,20180419_183518_889000_%processname%_masterchef.png 265,1061,532301578,left_up,20180419_183519_36000_%processname%_masterchef.png 
20180419|1835|C:\Windows\explorer.exe|65812|masterchef||1920x1080|215,960,532303656,left_down,20180419_183521_13000_%processname%_masterchef.png 215,960,532303765,left_up,20180419_183521_150000_%processname%_masterchef.png 
20180419|1835|C:\Python27\pythonw.exe|131808|masterchef||1920x1080|1134,573,532313234,left_down,20180419_183530_606000_%processname%_masterchef.png 1134,573,532313328,left_up,20180419_183530_750000_%processname%_masterchef.png 
20180419|1836|C:\Python27\pythonw.exe|131808|masterchef||1920x1080|1311,580,532363109,left_down,20180419_183620_466000_%processname%_masterchef.png 1311,580,532363218,left_up,20180419_183620_582000_%processname%_masterchef.png 1315,586,532383265,left_down,20180419_183640_613000_%processname%_masterchef.png 1315,586,532383359,left_up,20180419_183640_750000_%processname%_masterchef.png 
20180419|1836|C:\Python27\pythonw.exe|1901472|masterchef|Python 2.7.14 Shell|1920x1080|698,71,532391828,left_down,20180419_183649_159000_%processname%_masterchef.png 698,71,532391906,left_up,20180419_183649_328000_%processname%_masterchef.png 
20180419|1837|C:\Python27\pythonw.exe|131808|masterchef||1920x1080|1125,565,532406937,left_down,20180419_183704_313000_%processname%_masterchef.png 
20180419|1837|C:\Python27\pythonw.exe|394010|masterchef|prueba.py - C:/Python27/prueba.py (2.7.14)|1920x1080|938,538,532408312,left_up,20180419_183705_629000_%processname%_masterchef.png 
20180419|1837|C:\Python27\pythonw.exe|459710|masterchef|Aceptar|1920x1080|1046,599,532418390,left_down,20180419_183715_781000_%processname%_masterchef.png 
20180419|1837|noprocname|459710|masterchef|Aceptar|1920x1080|1046,599,532418468,left_up,20180419_183715_894000_%processname%_masterchef.png 
20180419|1837|C:\Python27\pythonw.exe|131808|masterchef||1920x1080|1186,352,532422750,left_down,20180419_183720_116000_%processname%_masterchef.png 981,247,532423078,left_up,20180419_183720_385000_%processname%_masterchef.png 1207,529,532424671,left_down,20180419_183722_26000_%processname%_masterchef.png 1207,529,532424734,left_up,20180419_183722_145000_%processname%_masterchef.png 
20180419|1837|C:\Python27\pythonw.exe|1639442|masterchef|Python 2.7.14 Shell|1920x1080|737,96,532447296,left_down,20180419_183744_667000_%processname%_masterchef.png 
20180419|1837|noprocname|1639442|masterchef|Python 2.7.14 Shell|1920x1080|737,96,532447437,left_up,20180419_183744_823000_%processname%_masterchef.png 
