530319500,20180419_180216_859000_%processname%_masterchef.png,crop0.png,lío: i in entrada:
if i = 1:
lista.append(1)
if (1+1) !=Oor (1+1) !=1:
conversion (lista)
if i = 0:
lista.append(0)

530450531,20180419_180427_895000_%processname%_masterchef.png,crop1.png,if (1+1) !=Uor (i+1)

530563937,20180419_180621_300000_%processname%_masterchef.png,crop2.png,

530563937,20180419_180621_300000_%processname%_masterchef.png,crop3.png,lista = []
entrada = scz(inpuc())|

530648031,20180419_180745_389000_%processname%_masterchef.png,crop4.png,Melcometothelelacmicpcctcweexpecttohave111011100110101100101001101011editionsmore

530699468,20180419_180836_824000_%processname%_masterchef.png,crop5.png,Melcometothelelacmicpcctcweexpecttohave

531097578,20180419_181514_906000_%processname%_masterchef.png,crop6.png,

531097578,20180419_181514_906000_%processname%_masterchef.png,crop7.png,leer (em:

531097578,20180419_181514_906000_%processname%_masterchef.png,crop8.png,

531352500,20180419_181929_850000_%processname%_masterchef.png,crop9.png,

531352500,20180419_181929_850000_%processname%_masterchef.png,crop10.png,entrada . split ("" )I

531553281,20180419_182250_648000_%processname%_masterchef.png,crop11.png,entzada.1ettezs
print: (entrada”

531591515,20180419_182328_849000_%processname%_masterchef.png,crop12.png,[if (1+1) !=Oor (1+1) !=1:

531673437,20180419_182450_792000_%processname%_masterchef.png,crop13.png,conversion (entrada, lista)

531690156,20180419_182507_514000_%processname%_masterchef.png,crop14.png,if (1+1) !=Oor (1+1) !=1:
conversion (entrada, lista)

531792484,20180419_182649_841000_%processname%_masterchef.png,crop15.png,

531792484,20180419_182649_841000_%processname%_masterchef.png,crop16.png,leer (entrada, lista)

532139468,20180419_183236_864000_%processname%_masterchef.png,crop17.png,B pruebapy - C:!PythonZTJ'pruebapy (23.14)

File Edil Format Run Options Window Help

def resultado(entzada,num):
print (num)

conversion(entrada,lista):
i = 1en(lista)—1
aux = D
num = 0
while i > —1:
aux = (2"1) '(listalil)
num += aux
i —= 1
lista = []
resultado(entrada,num)

1eer(entrada,lista):
print(entrada)
for cha: in entrada:
entry = "
try:
entry = int(char)
if entry == 1:
lista.append(1)
if entry == 0:
lista.append(0)
except:
continue
if entry != ":
conversion(entrada,lista)

lista = []
print('Intzoduzca e1 texto')
entrada = raw_input()
entrada = str(entrada)
leer(entrada,lista)

532139468,20180419_183236_864000_%processname%_masterchef.png,crop18.png,¿ python-inputºefror-b X 3 In Python2.7:HowcanI x
[; Python 2.7.14 Shell

File Edit Shell Debug Options Window Help
Python 2.7.14 (v2.7.14:84471935€d, Sep 16 2017, 20:19:30) [MSC v.1500 32

tal)] on Hin32
Type "copyright", "credits" oz “license()' fo: more information.

>>>
RESTART: C:/Python27/pzueba.py

Introduzca el texto

RESTART: C:/Python27/pzueba.py

RESTART: C:/Python27/pzueba.py

Introduzca el texto
100

ln:24 Cok4 g
ﬁrst character in the string. The for

532292640,20180419_183509_982000_%processname%_masterchef.png,crop19.png,B prueba.py - Cn’PythonZFJ'pruebapy(1.714]

File Edil Format Run Options Window Help

def resultado(entrada,num):
print (num)

conversion(entrada,lista):
print(1ista)
i = 1en(1ista)al
aux
num
while i > —1:
aux = (Z'f'i) '(listalil)
num += aux
i = l
lista = []
resultado(entrada,num)

1eer(entrada,1ista):
print(entrada)
for char in entrada:
entry = "
try:
entry = int(char)
if entry == 1:
lista.append(l)
if entry == D:
lista.append(0)
except:
continue
if entry != ":
conversion(entrada,listaﬂ

lista = []
print('Introduzca e1 texto')
entrada = raw_input()
entrada : str (entrada)

leer (entrada, lista)

' default?

 

 

 

 

 

an6 Col: 16

532406937,20180419_183704_313000_%processname%_masterchef.png,crop20.png,except:
continud

532422750,20180419_183720_116000_%processname%_masterchef.png,crop21.png,num=0
while i > —1:

aux = (2H1) "(lista[i])
num *: aux
i —= 1

lista = []
:esultado(entzada,numﬂ

530319500,20180419_180216_859000_%processname%_masterchef.png,crop0.png,lío: i in entrada:
if i = 1:
lista.append(1)
if (1+1) !=Oor (1+1) !=1:
conversion (lista)
if i = 0:
lista.append(0)

530450531,20180419_180427_895000_%processname%_masterchef.png,crop1.png,if (1+1) !=Uor (i+1)

530563937,20180419_180621_300000_%processname%_masterchef.png,crop2.png,

530563937,20180419_180621_300000_%processname%_masterchef.png,crop3.png,lista = []
entrada = scz(inpuc())|

530648031,20180419_180745_389000_%processname%_masterchef.png,crop4.png,Melcometothelelacmicpcctcweexpecttohave111011100110101100101001101011editionsmore

530699468,20180419_180836_824000_%processname%_masterchef.png,crop5.png,Melcometothelelacmicpcctcweexpecttohave

