1524181567.1|C:\Users\masterchef\Documents\ResearchLogger\logs-masterchef-1524181491\timed_screenshots\20180419_174606_917000_screenshot.png
1524181642.46|C:\Users\masterchef\Documents\ResearchLogger\logs-masterchef-1524181491\timed_screenshots\20180419_174722_274000_screenshot.png
1524181717.72|C:\Users\masterchef\Documents\ResearchLogger\logs-masterchef-1524181491\timed_screenshots\20180419_174837_533000_screenshot.png
1524181792.93|C:\Users\masterchef\Documents\ResearchLogger\logs-masterchef-1524181491\timed_screenshots\20180419_174952_744000_screenshot.png
1524181868.13|C:\Users\masterchef\Documents\ResearchLogger\logs-masterchef-1524181491\timed_screenshots\20180419_175107_939000_screenshot.png
1524181943.56|C:\Users\masterchef\Documents\ResearchLogger\logs-masterchef-1524181491\timed_screenshots\20180419_175223_168000_screenshot.png
1524182018.86|C:\Users\masterchef\Documents\ResearchLogger\logs-masterchef-1524181491\timed_screenshots\20180419_175338_625000_screenshot.png
1524182094.08|C:\Users\masterchef\Documents\ResearchLogger\logs-masterchef-1524181491\timed_screenshots\20180419_175453_892000_screenshot.png
1524182169.43|C:\Users\masterchef\Documents\ResearchLogger\logs-masterchef-1524181491\timed_screenshots\20180419_175609_165000_screenshot.png
1524182244.75|C:\Users\masterchef\Documents\ResearchLogger\logs-masterchef-1524181491\timed_screenshots\20180419_175724_565000_screenshot.png
1524182320.11|C:\Users\masterchef\Documents\ResearchLogger\logs-masterchef-1524181491\timed_screenshots\20180419_175839_889000_screenshot.png
1524182395.4|C:\Users\masterchef\Documents\ResearchLogger\logs-masterchef-1524181491\timed_screenshots\20180419_175955_208000_screenshot.png
1524182470.62|C:\Users\masterchef\Documents\ResearchLogger\logs-masterchef-1524181491\timed_screenshots\20180419_180110_427000_screenshot.png
1524182545.92|C:\Users\masterchef\Documents\ResearchLogger\logs-masterchef-1524181491\timed_screenshots\20180419_180225_744000_screenshot.png
1524182621.18|C:\Users\masterchef\Documents\ResearchLogger\logs-masterchef-1524181491\timed_screenshots\20180419_180340_950000_screenshot.png
1524182696.65|C:\Users\masterchef\Documents\ResearchLogger\logs-masterchef-1524181491\timed_screenshots\20180419_180456_448000_screenshot.png
1524182772.17|C:\Users\masterchef\Documents\ResearchLogger\logs-masterchef-1524181491\timed_screenshots\20180419_180612_66000_screenshot.png
1524182847.57|C:\Users\masterchef\Documents\ResearchLogger\logs-masterchef-1524181491\timed_screenshots\20180419_180727_378000_screenshot.png
1524182923.22|C:\Users\masterchef\Documents\ResearchLogger\logs-masterchef-1524181491\timed_screenshots\20180419_180843_62000_screenshot.png
1524182998.68|C:\Users\masterchef\Documents\ResearchLogger\logs-masterchef-1524181491\timed_screenshots\20180419_180958_459000_screenshot.png
1524183074.08|C:\Users\masterchef\Documents\ResearchLogger\logs-masterchef-1524181491\timed_screenshots\20180419_181113_785000_screenshot.png
1524183146.75|C:\Users\masterchef\Documents\ResearchLogger\logs-masterchef-1524181491\timed_screenshots\20180419_181226_569000_screenshot.png
1524183211.44|C:\Users\masterchef\Documents\ResearchLogger\logs-masterchef-1524181491\timed_screenshots\20180419_181331_208000_screenshot.png
1524183276.31|C:\Users\masterchef\Documents\ResearchLogger\logs-masterchef-1524181491\timed_screenshots\20180419_181436_140000_screenshot.png
1524183340.82|C:\Users\masterchef\Documents\ResearchLogger\logs-masterchef-1524181491\timed_screenshots\20180419_181540_656000_screenshot.png
1524183405.76|C:\Users\masterchef\Documents\ResearchLogger\logs-masterchef-1524181491\timed_screenshots\20180419_181645_534000_screenshot.png
1524183471.09|C:\Users\masterchef\Documents\ResearchLogger\logs-masterchef-1524181491\timed_screenshots\20180419_181750_929000_screenshot.png
1524183566.96|C:\Users\masterchef\Documents\ResearchLogger\logs-masterchef-1524181491\timed_screenshots\20180419_181926_774000_screenshot.png
1524183640.71|C:\Users\masterchef\Documents\ResearchLogger\logs-masterchef-1524181491\timed_screenshots\20180419_182040_513000_screenshot.png
1524183705.83|C:\Users\masterchef\Documents\ResearchLogger\logs-masterchef-1524181491\timed_screenshots\20180419_182145_643000_screenshot.png
1524183771.4|C:\Users\masterchef\Documents\ResearchLogger\logs-masterchef-1524181491\timed_screenshots\20180419_182251_179000_screenshot.png
1524183838.27|C:\Users\masterchef\Documents\ResearchLogger\logs-masterchef-1524181491\timed_screenshots\20180419_182358_35000_screenshot.png
1524183905.35|C:\Users\masterchef\Documents\ResearchLogger\logs-masterchef-1524181491\timed_screenshots\20180419_182505_108000_screenshot.png
1524183971.94|C:\Users\masterchef\Documents\ResearchLogger\logs-masterchef-1524181491\timed_screenshots\20180419_182611_714000_screenshot.png
1524184038.53|C:\Users\masterchef\Documents\ResearchLogger\logs-masterchef-1524181491\timed_screenshots\20180419_182718_313000_screenshot.png
1524184105.11|C:\Users\masterchef\Documents\ResearchLogger\logs-masterchef-1524181491\timed_screenshots\20180419_182824_892000_screenshot.png
1524184171.9|C:\Users\masterchef\Documents\ResearchLogger\logs-masterchef-1524181491\timed_screenshots\20180419_182931_696000_screenshot.png
1524184238.36|C:\Users\masterchef\Documents\ResearchLogger\logs-masterchef-1524181491\timed_screenshots\20180419_183038_131000_screenshot.png
1524184312.09|C:\Users\masterchef\Documents\ResearchLogger\logs-masterchef-1524181491\timed_screenshots\20180419_183151_916000_screenshot.png
1524184378.67|C:\Users\masterchef\Documents\ResearchLogger\logs-masterchef-1524181491\timed_screenshots\20180419_183258_383000_screenshot.png
1524184474.67|C:\Users\masterchef\Documents\ResearchLogger\logs-masterchef-1524181491\timed_screenshots\20180419_183434_473000_screenshot.png
1524184540.85|C:\Users\masterchef\Documents\ResearchLogger\logs-masterchef-1524181491\timed_screenshots\20180419_183540_636000_screenshot.png
1524184607.12|C:\Users\masterchef\Documents\ResearchLogger\logs-masterchef-1524181491\timed_screenshots\20180419_183646_882000_screenshot.png
